<svg width="366" height="681" viewBox="0 0 366 681" fill="none" xmlns="http://www.w3.org/2000/svg">
<g filter="url(#filter0_dii)">
<g clip-path="url(#clip0)">
<rect width="282" height="608.4" rx="30" fill="#D3A600"/>
<g filter="url(#filter1_ii)">
<rect x="4.2002" y="7.80005" width="273.6" height="592.8" rx="30" fill="#F1F3F6"/>
</g>
<rect x="4.3502" y="7.95005" width="273.3" height="592.5" rx="29.85" stroke="url(#paint0_linear)" stroke-width="0.3"/>
<rect x="57.6006" y="0.000244141" width="4.2" height="7.8" fill="#E3E5E8"/>
<rect x="219.6" width="4.2" height="7.8" fill="#E3E5E8"/>
<rect x="57.6006" y="600.6" width="4.2" height="7.8" fill="#E3E5E8"/>
<rect x="219.6" y="600.6" width="4.2" height="7.8" fill="#E3E5E8"/>
<rect x="135.979" y="15.0002" width="2.17895" height="2.17895" rx="1.08947" fill="#E1E1E1"/>
<rect x="139.958" y="15.0002" width="2.17895" height="2.17895" rx="1.08947" fill="#E1E1E1"/>
<rect x="143.937" y="15.0002" width="2.17895" height="2.17895" rx="1.08947" fill="#E1E1E1"/>
<rect x="147.915" y="15.0002" width="2.17895" height="2.17895" rx="1.08947" fill="#E1E1E1"/>
<rect x="132" y="15.0002" width="2.17895" height="2.17895" rx="1.08947" fill="#E1E1E1"/>
<path d="M41.7354 303.399C41.7354 311.079 47.9178 317.184 55.5978 317.184C59.0154 317.184 62.3178 315.994 64.929 313.46C65.1978 313.191 65.2746 312.692 64.9674 312.423L62.5866 309.965C62.3562 309.735 61.9338 309.696 61.6266 309.965C60.0138 311.271 58.0554 312.154 55.7514 312.154C50.8362 312.154 47.1498 308.084 47.1498 303.284C47.1498 298.445 50.7978 294.336 55.713 294.336C57.8634 294.336 60.0138 295.181 61.6266 296.602C61.9338 296.909 62.3178 296.909 62.5866 296.602L64.929 294.183C65.2362 293.876 65.2362 293.415 64.8906 293.108C62.2794 290.765 59.4762 289.536 55.5978 289.536C47.9178 289.536 41.7354 295.719 41.7354 303.399Z" fill="#3B6EBA"/>
<path d="M68.3409 316.071C68.3409 316.455 68.6865 316.8 69.0705 316.8H72.2961C72.6801 316.8 73.0257 316.455 73.0257 316.071V290.65C73.0257 290.266 72.6801 289.92 72.2961 289.92H69.0705C68.6865 289.92 68.3409 290.266 68.3409 290.65V316.071Z" fill="#3B6EBA"/>
<path d="M76.5273 311.924C76.5273 315.188 78.6393 317.184 81.7113 317.184C84.0921 317.184 85.5129 316.032 86.3961 315.226L86.8569 316.263C87.0489 316.685 87.2409 316.8 87.5097 316.8H88.8921C89.2761 316.8 89.6217 316.455 89.6217 316.071V307.738C89.6217 303.552 88.5081 301.056 83.7081 301.056C81.2505 301.056 78.7929 301.671 78.4857 301.786C78.1401 301.901 77.8329 302.17 77.9481 302.746L78.2937 304.743C78.3705 305.242 78.6393 305.588 79.1769 305.434C80.0601 305.165 82.0569 304.858 83.4777 304.858C84.8985 304.858 85.5129 305.549 85.4745 307.508C85.4745 307.508 84.2073 307.085 82.6713 307.085C78.7545 307.085 76.5273 309.197 76.5273 311.924ZM80.7513 311.924C80.7513 310.695 81.7497 309.85 83.2473 309.85C84.3609 309.85 85.3977 310.311 85.3977 310.311V312.423C85.1673 312.884 83.9769 313.92 82.7481 313.92C81.5577 313.92 80.7513 313.076 80.7513 311.924Z" fill="#3B6EBA"/>
<path d="M98.2908 315.725L92.838 327.284C92.5692 327.821 92.9148 328.32 93.4908 328.32H96.7932C97.1004 328.32 97.3308 328.09 97.446 327.86L109.196 302.439C109.465 301.94 109.158 301.44 108.544 301.44H105.472C105.011 301.44 104.742 301.479 104.55 301.863L100.71 310.541H100.672L96.7932 301.863C96.678 301.632 96.486 301.44 96.1404 301.44H92.6844C92.1084 301.44 91.8012 301.94 92.0316 302.439L98.2908 315.725Z" fill="#3B6EBA"/>
<path d="M119.702 315.917C119.626 316.455 119.933 316.8 120.432 316.8H123.888C124.234 316.8 124.541 316.493 124.579 316.224L126.806 301.671C126.845 301.671 126.922 301.671 126.922 301.671L133.718 316.762C133.834 316.992 134.026 317.184 134.371 317.184H135.062C135.408 317.184 135.638 316.992 135.715 316.762L142.435 301.671C142.435 301.671 142.512 301.671 142.55 301.671L144.816 316.224C144.893 316.493 145.2 316.8 145.546 316.8H149.04C149.539 316.8 149.846 316.455 149.731 315.917L145.2 290.112C145.162 289.805 144.931 289.536 144.509 289.536H143.894C143.549 289.536 143.357 289.69 143.242 289.92L134.794 308.045C134.755 308.045 134.755 308.045 134.678 308.045L126.23 289.92C126.115 289.69 125.885 289.536 125.578 289.536H124.963C124.541 289.536 124.31 289.805 124.272 290.112L119.702 315.917Z" fill="#3B6EBA"/>
<path d="M152.125 309.082C152.125 313.498 155.658 317.184 159.997 317.184C164.337 317.184 167.869 313.498 167.869 309.082C167.869 304.743 164.337 301.056 159.997 301.056C155.658 301.056 152.125 304.743 152.125 309.082ZM156.311 309.082C156.311 306.932 157.924 305.204 159.997 305.204C162.033 305.204 163.684 306.932 163.684 309.082C163.684 311.271 162.033 313.037 159.997 313.037C157.924 313.037 156.311 311.271 156.311 309.082Z" fill="#3B6EBA"/>
<path d="M170.088 309.12C170.088 313.728 173.89 317.184 178.229 317.184C180.955 317.184 182.99 315.994 184.296 313.959C184.565 313.575 184.411 313.191 184.027 312.884L182.376 311.463C182.069 311.232 181.685 311.309 181.416 311.578C180.725 312.231 179.995 313.037 178.344 313.037C176.27 313.037 174.619 311.309 174.619 309.12C174.619 306.97 176.309 305.204 178.382 305.204C179.458 305.204 180.418 305.741 181.032 306.432C181.301 306.663 181.646 306.855 181.992 306.548L183.758 304.858C184.142 304.589 184.219 304.128 183.95 303.783C182.491 302.016 180.648 301.056 178.267 301.056C173.966 301.056 170.088 304.589 170.088 309.12Z" fill="#3B6EBA"/>
<path d="M187.628 316.071C187.628 316.455 187.974 316.8 188.358 316.8H191.622C192.006 316.8 192.352 316.455 192.352 316.071V309.581L198.419 316.493C198.534 316.647 198.841 316.8 199.072 316.8H203.219C203.872 316.8 204.102 316.148 203.718 315.725L196.883 308.391L202.604 302.554C202.988 302.132 202.758 301.44 202.105 301.44H198.611C198.188 301.44 197.92 301.671 197.651 301.901L192.352 307.277V290.65C192.352 290.266 192.006 289.92 191.622 289.92H188.358C187.974 289.92 187.628 290.266 187.628 290.65V316.071Z" fill="#3B6EBA"/>
<path d="M205.922 309.62C205.922 313.536 207.65 317.184 212.412 317.184C215.445 317.184 216.866 315.572 217.557 314.957L218.018 316.224C218.133 316.532 218.364 316.8 218.748 316.8H220.168C220.552 316.8 220.898 316.455 220.898 316.071V302.17C220.898 301.748 220.552 301.44 220.168 301.44H217.25C216.636 301.44 216.405 301.594 216.405 302.17V310.157C216.175 311.54 214.946 313.037 213.333 313.037C211.567 313.037 210.53 311.77 210.53 309.735V302.17C210.53 301.748 210.184 301.44 209.8 301.44H206.652C206.268 301.44 205.922 301.748 205.922 302.17V309.62Z" fill="#3B6EBA"/>
<path d="M230.227 316.34C230.764 316.647 232.147 317.184 233.644 317.184C237.791 317.184 241.247 313.652 241.247 309.12C241.247 304.704 238.06 301.056 233.836 301.056C231.34 301.056 229.459 302.4 228.883 303.168L228.383 301.901C228.268 301.594 227.999 301.44 227.731 301.44H226.233C225.849 301.44 225.503 301.748 225.503 302.17V327.591C225.503 327.975 225.849 328.32 226.233 328.32H229.305C229.996 328.32 230.227 328.052 230.227 327.591V316.34ZM230.035 312.154V307.546C230.265 306.74 231.225 305.204 233.183 305.204C235.295 305.204 236.755 306.97 236.755 309.12C236.755 311.271 235.18 313.037 233.03 313.037C231.11 313.037 230.035 312.154 230.035 312.154Z" fill="#3B6EBA"/>
</g>
</g>
<defs>
<filter id="filter0_dii" x="-18" y="-1.2" width="384" height="681.6" filterUnits="userSpaceOnUse" color-interpolation-filters="sRGB">
<feFlood flood-opacity="0" result="BackgroundImageFix"/>
<feColorMatrix in="SourceAlpha" type="matrix" values="0 0 0 0 0 0 0 0 0 0 0 0 0 0 0 0 0 0 127 0"/>
<feOffset dx="48" dy="36"/>
<feGaussianBlur stdDeviation="18"/>
<feColorMatrix type="matrix" values="0 0 0 0 0.419608 0 0 0 0 0.498039 0 0 0 0 0.6 0 0 0 0.2 0"/>
<feBlend mode="normal" in2="BackgroundImageFix" result="effect1_dropShadow"/>
<feBlend mode="normal" in="SourceGraphic" in2="effect1_dropShadow" result="shape"/>
<feColorMatrix in="SourceAlpha" type="matrix" values="0 0 0 0 0 0 0 0 0 0 0 0 0 0 0 0 0 0 127 0" result="hardAlpha"/>
<feOffset dx="18" dy="1.2"/>
<feGaussianBlur stdDeviation="9"/>
<feComposite in2="hardAlpha" operator="arithmetic" k2="-1" k3="1"/>
<feColorMatrix type="matrix" values="0 0 0 0 1 0 0 0 0 1 0 0 0 0 1 0 0 0 0.8 0"/>
<feBlend mode="normal" in2="shape" result="effect2_innerShadow"/>
<feColorMatrix in="SourceAlpha" type="matrix" values="0 0 0 0 0 0 0 0 0 0 0 0 0 0 0 0 0 0 127 0" result="hardAlpha"/>
<feOffset dx="-18" dy="-1.2"/>
<feGaussianBlur stdDeviation="9"/>
<feComposite in2="hardAlpha" operator="arithmetic" k2="-1" k3="1"/>
<feColorMatrix type="matrix" values="0 0 0 0 0.25098 0 0 0 0 0.321569 0 0 0 0 0.501961 0 0 0 0.1 0"/>
<feBlend mode="normal" in2="effect2_innerShadow" result="effect3_innerShadow"/>
</filter>
<filter id="filter1_ii" x="-13.7998" y="6.60005" width="309.6" height="595.2" filterUnits="userSpaceOnUse" color-interpolation-filters="sRGB">
<feFlood flood-opacity="0" result="BackgroundImageFix"/>
<feBlend mode="normal" in="SourceGraphic" in2="BackgroundImageFix" result="shape"/>
<feColorMatrix in="SourceAlpha" type="matrix" values="0 0 0 0 0 0 0 0 0 0 0 0 0 0 0 0 0 0 127 0" result="hardAlpha"/>
<feOffset dx="18" dy="1.2"/>
<feGaussianBlur stdDeviation="9"/>
<feComposite in2="hardAlpha" operator="arithmetic" k2="-1" k3="1"/>
<feColorMatrix type="matrix" values="0 0 0 0 1 0 0 0 0 1 0 0 0 0 1 0 0 0 0.8 0"/>
<feBlend mode="normal" in2="shape" result="effect1_innerShadow"/>
<feColorMatrix in="SourceAlpha" type="matrix" values="0 0 0 0 0 0 0 0 0 0 0 0 0 0 0 0 0 0 127 0" result="hardAlpha"/>
<feOffset dx="-18" dy="-1.2"/>
<feGaussianBlur stdDeviation="9"/>
<feComposite in2="hardAlpha" operator="arithmetic" k2="-1" k3="1"/>
<feColorMatrix type="matrix" values="0 0 0 0 0.25098 0 0 0 0 0.321569 0 0 0 0 0.501961 0 0 0 0.1 0"/>
<feBlend mode="normal" in2="effect1_innerShadow" result="effect2_innerShadow"/>
</filter>
<linearGradient id="paint0_linear" x1="141" y1="7.80005" x2="141" y2="600.6" gradientUnits="userSpaceOnUse">
<stop stop-color="#D3D7DB"/>
<stop offset="1" stop-color="#CED2D6"/>
</linearGradient>
<clipPath id="clip0">
<rect width="282" height="608.4" rx="30" fill="white"/>
</clipPath>
</defs>
</svg>
