<svg width="1059" height="655" viewBox="0 0 1059 655" fill="none" xmlns="http://www.w3.org/2000/svg">
<g filter="url(#filter0_f)">
<ellipse cx="529.877" cy="602.874" rx="475.262" ry="5.25151" fill="black"/>
</g>
<path d="M103.98 29.4085C103.98 13.7467 116.676 1.0503 132.338 1.0503H930.568C946.23 1.0503 958.926 13.7467 958.926 29.4085V577.666C958.926 579.406 957.515 580.817 955.775 580.817H107.131C105.391 580.817 103.98 579.406 103.98 577.666V29.4085Z" fill="#E2E8F0" stroke="#CBD5E0" stroke-width="2.1006"/>
<path d="M108.183 28.3581C108.183 15.5967 118.528 5.25146 131.289 5.25146H931.62C944.381 5.25146 954.726 15.5967 954.726 28.3581V559.811H108.183V28.3581Z" fill="#E2E8F0"/>
<rect x="130.238" y="34.6599" width="799.28" height="502.044" fill="white"/>
<path d="M420.361 275.56V293.079H417.487V275.56H420.361ZM431.141 278.963C432.233 278.963 433.208 279.19 434.065 279.643C434.939 280.097 435.62 280.769 436.107 281.66C436.594 282.551 436.838 283.626 436.838 284.886V293.079H433.989V285.315C433.989 284.071 433.679 283.122 433.057 282.467C432.435 281.794 431.586 281.458 430.511 281.458C429.435 281.458 428.578 281.794 427.94 282.467C427.318 283.122 427.007 284.071 427.007 285.315V293.079H424.133V279.19H427.007V280.778C427.478 280.206 428.074 279.761 428.797 279.442C429.536 279.122 430.318 278.963 431.141 278.963ZM445.545 293.306C444.452 293.306 443.469 293.112 442.596 292.726C441.739 292.323 441.058 291.785 440.554 291.113C440.05 290.424 439.781 289.659 439.747 288.819H442.722C442.772 289.407 443.049 289.903 443.553 290.306C444.074 290.693 444.721 290.886 445.494 290.886C446.301 290.886 446.923 290.735 447.36 290.432C447.813 290.113 448.04 289.709 448.04 289.222C448.04 288.701 447.788 288.315 447.284 288.063C446.797 287.811 446.015 287.533 444.94 287.231C443.898 286.945 443.049 286.668 442.394 286.399C441.739 286.13 441.167 285.718 440.68 285.164C440.209 284.609 439.974 283.878 439.974 282.971C439.974 282.231 440.192 281.559 440.629 280.954C441.066 280.332 441.688 279.845 442.495 279.492C443.318 279.139 444.259 278.963 445.318 278.963C446.898 278.963 448.166 279.366 449.124 280.173C450.099 280.963 450.62 282.046 450.687 283.424H447.813C447.763 282.803 447.511 282.307 447.057 281.937C446.604 281.568 445.99 281.383 445.217 281.383C444.461 281.383 443.881 281.526 443.478 281.811C443.074 282.097 442.873 282.475 442.873 282.946C442.873 283.315 443.007 283.626 443.276 283.878C443.545 284.13 443.873 284.332 444.259 284.483C444.646 284.618 445.217 284.794 445.973 285.013C446.982 285.281 447.805 285.559 448.444 285.844C449.099 286.113 449.662 286.517 450.133 287.054C450.603 287.592 450.847 288.306 450.864 289.197C450.864 289.987 450.645 290.693 450.208 291.314C449.771 291.936 449.149 292.423 448.343 292.776C447.553 293.129 446.62 293.306 445.545 293.306ZM466.698 285.794C466.698 286.315 466.665 286.785 466.597 287.206H455.985C456.069 288.315 456.481 289.205 457.22 289.878C457.96 290.55 458.867 290.886 459.943 290.886C461.489 290.886 462.581 290.239 463.22 288.945H466.32C465.9 290.222 465.135 291.272 464.026 292.096C462.934 292.902 461.573 293.306 459.943 293.306C458.615 293.306 457.422 293.012 456.363 292.423C455.321 291.818 454.498 290.978 453.893 289.903C453.305 288.81 453.011 287.55 453.011 286.122C453.011 284.693 453.296 283.441 453.868 282.366C454.456 281.273 455.271 280.433 456.313 279.845C457.372 279.257 458.581 278.963 459.943 278.963C461.253 278.963 462.421 279.248 463.446 279.82C464.472 280.391 465.27 281.198 465.841 282.24C466.413 283.265 466.698 284.45 466.698 285.794ZM463.699 284.886C463.682 283.828 463.304 282.979 462.564 282.341C461.825 281.702 460.909 281.383 459.817 281.383C458.825 281.383 457.977 281.702 457.271 282.341C456.565 282.962 456.145 283.811 456.01 284.886H463.699ZM472.4 281.206C472.82 280.5 473.374 279.954 474.063 279.568C474.769 279.164 475.601 278.963 476.559 278.963V281.937H475.828C474.702 281.937 473.845 282.223 473.257 282.794C472.685 283.366 472.4 284.357 472.4 285.769V293.079H469.526V279.19H472.4V281.206ZM482.553 281.534V289.222C482.553 289.743 482.671 290.121 482.906 290.356C483.158 290.575 483.578 290.684 484.166 290.684H485.931V293.079H483.662C482.368 293.079 481.377 292.776 480.688 292.171C479.999 291.566 479.654 290.583 479.654 289.222V281.534H478.016V279.19H479.654V275.736H482.553V279.19H485.931V281.534H482.553ZM508.109 275.56L502.311 286.727V293.079H499.438V286.727L493.615 275.56H496.816L500.875 284.155L504.933 275.56H508.109ZM516.414 293.306C515.103 293.306 513.918 293.012 512.86 292.423C511.801 291.818 510.969 290.978 510.364 289.903C509.759 288.81 509.457 287.55 509.457 286.122C509.457 284.71 509.768 283.458 510.389 282.366C511.011 281.273 511.86 280.433 512.935 279.845C514.011 279.257 515.212 278.963 516.54 278.963C517.868 278.963 519.069 279.257 520.145 279.845C521.22 280.433 522.069 281.273 522.691 282.366C523.312 283.458 523.623 284.71 523.623 286.122C523.623 287.533 523.304 288.785 522.665 289.878C522.027 290.97 521.153 291.818 520.044 292.423C518.952 293.012 517.742 293.306 516.414 293.306ZM516.414 290.81C517.153 290.81 517.842 290.634 518.481 290.281C519.136 289.928 519.666 289.399 520.069 288.693C520.472 287.987 520.674 287.13 520.674 286.122C520.674 285.113 520.481 284.265 520.094 283.576C519.708 282.87 519.195 282.341 518.557 281.988C517.918 281.635 517.229 281.458 516.49 281.458C515.75 281.458 515.061 281.635 514.423 281.988C513.801 282.341 513.305 282.87 512.935 283.576C512.566 284.265 512.381 285.113 512.381 286.122C512.381 287.617 512.759 288.777 513.515 289.6C514.288 290.407 515.254 290.81 516.414 290.81ZM539.042 279.19V293.079H536.169V291.44C535.715 292.012 535.119 292.465 534.379 292.802C533.656 293.121 532.883 293.281 532.06 293.281C530.968 293.281 529.985 293.054 529.111 292.6C528.254 292.146 527.573 291.474 527.069 290.583C526.582 289.693 526.338 288.617 526.338 287.357V279.19H529.186V286.928C529.186 288.172 529.497 289.13 530.119 289.802C530.741 290.457 531.589 290.785 532.665 290.785C533.741 290.785 534.589 290.457 535.211 289.802C535.85 289.13 536.169 288.172 536.169 286.928V279.19H539.042ZM545.708 281.206C546.128 280.5 546.682 279.954 547.371 279.568C548.077 279.164 548.909 278.963 549.867 278.963V281.937H549.136C548.01 281.937 547.153 282.223 546.565 282.794C545.993 283.366 545.708 284.357 545.708 285.769V293.079H542.834V279.19H545.708V281.206ZM564.778 275.56C566.644 275.56 568.274 275.921 569.668 276.644C571.08 277.35 572.164 278.375 572.92 279.719C573.693 281.047 574.08 282.601 574.08 284.382C574.08 286.164 573.693 287.71 572.92 289.02C572.164 290.331 571.08 291.34 569.668 292.045C568.274 292.734 566.644 293.079 564.778 293.079H559.056V275.56H564.778ZM564.778 290.735C566.828 290.735 568.4 290.18 569.492 289.071C570.584 287.962 571.13 286.399 571.13 284.382C571.13 282.349 570.584 280.761 569.492 279.618C568.4 278.475 566.828 277.904 564.778 277.904H561.93V290.735H564.778ZM589.657 285.794C589.657 286.315 589.624 286.785 589.557 287.206H578.944C579.028 288.315 579.44 289.205 580.179 289.878C580.919 290.55 581.826 290.886 582.902 290.886C584.448 290.886 585.54 290.239 586.179 288.945H589.279C588.859 290.222 588.095 291.272 586.985 292.096C585.893 292.902 584.532 293.306 582.902 293.306C581.574 293.306 580.381 293.012 579.322 292.423C578.281 291.818 577.457 290.978 576.852 289.903C576.264 288.81 575.97 287.55 575.97 286.122C575.97 284.693 576.256 283.441 576.827 282.366C577.415 281.273 578.23 280.433 579.272 279.845C580.331 279.257 581.541 278.963 582.902 278.963C584.213 278.963 585.381 279.248 586.406 279.82C587.431 280.391 588.229 281.198 588.8 282.24C589.372 283.265 589.657 284.45 589.657 285.794ZM586.658 284.886C586.641 283.828 586.263 282.979 585.523 282.341C584.784 281.702 583.868 281.383 582.776 281.383C581.784 281.383 580.936 281.702 580.23 282.341C579.524 282.962 579.104 283.811 578.97 284.886H586.658ZM597.527 293.306C596.434 293.306 595.451 293.112 594.578 292.726C593.721 292.323 593.04 291.785 592.536 291.113C592.032 290.424 591.763 289.659 591.729 288.819H594.704C594.754 289.407 595.031 289.903 595.535 290.306C596.056 290.693 596.703 290.886 597.476 290.886C598.283 290.886 598.905 290.735 599.342 290.432C599.795 290.113 600.022 289.709 600.022 289.222C600.022 288.701 599.77 288.315 599.266 288.063C598.779 287.811 597.997 287.533 596.922 287.231C595.88 286.945 595.031 286.668 594.376 286.399C593.721 286.13 593.149 285.718 592.662 285.164C592.191 284.609 591.956 283.878 591.956 282.971C591.956 282.231 592.174 281.559 592.611 280.954C593.048 280.332 593.67 279.845 594.477 279.492C595.3 279.139 596.241 278.963 597.3 278.963C598.88 278.963 600.148 279.366 601.106 280.173C602.081 280.963 602.602 282.046 602.669 283.424H599.795C599.745 282.803 599.493 282.307 599.039 281.937C598.586 281.568 597.972 281.383 597.199 281.383C596.443 281.383 595.863 281.526 595.46 281.811C595.057 282.097 594.855 282.475 594.855 282.946C594.855 283.315 594.989 283.626 595.258 283.878C595.527 284.13 595.855 284.332 596.241 284.483C596.628 284.618 597.199 284.794 597.955 285.013C598.964 285.281 599.787 285.559 600.426 285.844C601.081 286.113 601.644 286.517 602.115 287.054C602.585 287.592 602.829 288.306 602.846 289.197C602.846 289.987 602.627 290.693 602.19 291.314C601.753 291.936 601.131 292.423 600.325 292.776C599.535 293.129 598.602 293.306 597.527 293.306ZM607.413 277.35C606.892 277.35 606.455 277.173 606.102 276.82C605.749 276.467 605.572 276.03 605.572 275.509C605.572 274.988 605.749 274.552 606.102 274.199C606.455 273.846 606.892 273.669 607.413 273.669C607.917 273.669 608.345 273.846 608.698 274.199C609.051 274.552 609.227 274.988 609.227 275.509C609.227 276.03 609.051 276.467 608.698 276.82C608.345 277.173 607.917 277.35 607.413 277.35ZM608.824 279.19V293.079H605.951V279.19H608.824ZM618.193 278.963C619.269 278.963 620.218 279.181 621.041 279.618C621.882 280.038 622.537 280.568 623.008 281.206V279.19H625.906V293.306C625.906 294.583 625.638 295.717 625.1 296.709C624.562 297.717 623.781 298.507 622.756 299.078C621.747 299.65 620.537 299.935 619.126 299.935C617.244 299.935 615.681 299.49 614.437 298.599C613.194 297.725 612.488 296.532 612.32 295.02H615.168C615.387 295.742 615.849 296.322 616.555 296.759C617.277 297.213 618.134 297.44 619.126 297.44C620.285 297.44 621.218 297.087 621.924 296.381C622.646 295.675 623.008 294.65 623.008 293.306V290.987C622.52 291.642 621.856 292.197 621.016 292.65C620.193 293.087 619.252 293.306 618.193 293.306C616.983 293.306 615.874 293.003 614.866 292.398C613.874 291.776 613.084 290.919 612.496 289.827C611.925 288.718 611.639 287.466 611.639 286.071C611.639 284.676 611.925 283.441 612.496 282.366C613.084 281.29 613.874 280.458 614.866 279.87C615.874 279.265 616.983 278.963 618.193 278.963ZM623.008 286.122C623.008 285.164 622.806 284.332 622.403 283.626C622.016 282.92 621.504 282.383 620.865 282.013C620.226 281.643 619.537 281.458 618.798 281.458C618.059 281.458 617.37 281.643 616.731 282.013C616.092 282.366 615.571 282.895 615.168 283.601C614.782 284.29 614.588 285.113 614.588 286.071C614.588 287.029 614.782 287.869 615.168 288.592C615.571 289.315 616.092 289.869 616.731 290.256C617.386 290.625 618.075 290.81 618.798 290.81C619.537 290.81 620.226 290.625 620.865 290.256C621.504 289.886 622.016 289.348 622.403 288.642C622.806 287.92 623.008 287.08 623.008 286.122ZM636.688 278.963C637.781 278.963 638.755 279.19 639.612 279.643C640.486 280.097 641.167 280.769 641.654 281.66C642.142 282.551 642.385 283.626 642.385 284.886V293.079H639.537V285.315C639.537 284.071 639.226 283.122 638.604 282.467C637.982 281.794 637.134 281.458 636.058 281.458C634.983 281.458 634.126 281.794 633.487 282.467C632.865 283.122 632.554 284.071 632.554 285.315V293.079H629.681V279.19H632.554V280.778C633.025 280.206 633.622 279.761 634.344 279.442C635.084 279.122 635.865 278.963 636.688 278.963ZM516.478 298.56V316.079H513.604V308.416H505.361V316.079H502.488V298.56H505.361V306.072H513.604V298.56H516.478ZM532.99 308.794C532.99 309.315 532.957 309.785 532.89 310.206H522.277C522.361 311.315 522.773 312.205 523.512 312.878C524.252 313.55 525.159 313.886 526.235 313.886C527.781 313.886 528.873 313.239 529.512 311.945H532.612C532.192 313.222 531.427 314.272 530.318 315.096C529.226 315.902 527.865 316.306 526.235 316.306C524.907 316.306 523.714 316.012 522.655 315.423C521.613 314.818 520.79 313.978 520.185 312.903C519.597 311.81 519.303 310.55 519.303 309.122C519.303 307.693 519.588 306.441 520.16 305.366C520.748 304.273 521.563 303.433 522.605 302.845C523.664 302.257 524.874 301.963 526.235 301.963C527.546 301.963 528.714 302.248 529.739 302.82C530.764 303.391 531.562 304.198 532.133 305.24C532.705 306.265 532.99 307.45 532.99 308.794ZM529.991 307.886C529.974 306.828 529.596 305.979 528.856 305.341C528.117 304.702 527.201 304.383 526.109 304.383C525.117 304.383 524.269 304.702 523.563 305.341C522.857 305.962 522.437 306.811 522.302 307.886H529.991ZM538.692 304.206C539.112 303.5 539.667 302.954 540.356 302.568C541.061 302.164 541.893 301.963 542.851 301.963V304.937H542.12C540.994 304.937 540.137 305.223 539.549 305.794C538.978 306.366 538.692 307.357 538.692 308.769V316.079H535.818V302.19H538.692V304.206ZM558.222 308.794C558.222 309.315 558.189 309.785 558.121 310.206H547.509C547.593 311.315 548.005 312.205 548.744 312.878C549.484 313.55 550.391 313.886 551.467 313.886C553.013 313.886 554.105 313.239 554.744 311.945H557.844C557.424 313.222 556.659 314.272 555.55 315.096C554.458 315.902 553.097 316.306 551.467 316.306C550.139 316.306 548.946 316.012 547.887 315.423C546.845 314.818 546.022 313.978 545.417 312.903C544.829 311.81 544.535 310.55 544.535 309.122C544.535 307.693 544.82 306.441 545.392 305.366C545.98 304.273 546.795 303.433 547.837 302.845C548.896 302.257 550.105 301.963 551.467 301.963C552.777 301.963 553.945 302.248 554.97 302.82C555.996 303.391 556.794 304.198 557.365 305.24C557.937 306.265 558.222 307.45 558.222 308.794ZM555.223 307.886C555.206 306.828 554.828 305.979 554.088 305.341C553.349 304.702 552.433 304.383 551.341 304.383C550.349 304.383 549.5 304.702 548.795 305.341C548.089 305.962 547.669 306.811 547.534 307.886H555.223Z" fill="#2D3748"/>
<path d="M0 579.767C0 578.607 0.940473 577.667 2.1006 577.667H1056.6C1057.76 577.667 1058.7 578.607 1058.7 579.767V583.968H0V579.767Z" fill="#E2E8F0"/>
<path d="M0 579.767C0 578.607 0.940473 577.667 2.1006 577.667H1056.6C1057.76 577.667 1058.7 578.607 1058.7 579.767V583.968H0V579.767Z" fill="url(#paint0_linear)"/>
<path d="M0 583.968H1058.7L1037.33 588.279C1009.98 593.794 982.161 596.571 954.269 596.571H102.834C72.1809 596.571 41.62 593.217 11.6969 586.567L0 583.968Z" fill="#E2E8F0"/>
<path d="M0 583.968H1058.7L1037.33 588.279C1009.98 593.794 982.161 596.571 954.269 596.571H102.834C72.1809 596.571 41.62 593.217 11.6969 586.567L0 583.968Z" fill="url(#paint1_linear)"/>
<path fill-rule="evenodd" clip-rule="evenodd" d="M451.664 577.666C452.205 581.185 449.583 583.968 457.931 583.968H601.823C610.171 583.968 607.55 581.185 608.09 577.666H451.664Z" fill="#E2E8F0"/>
<path fill-rule="evenodd" clip-rule="evenodd" d="M451.664 577.666C452.205 581.185 449.583 583.968 457.931 583.968H601.823C610.171 583.968 607.55 581.185 608.09 577.666H451.664Z" fill="url(#paint2_linear)"/>
<defs>
<filter id="filter0_f" x="8.40194" y="551.409" width="1042.95" height="102.93" filterUnits="userSpaceOnUse" color-interpolation-filters="sRGB">
<feFlood flood-opacity="0" result="BackgroundImageFix"/>
<feBlend mode="normal" in="SourceGraphic" in2="BackgroundImageFix" result="shape"/>
<feGaussianBlur stdDeviation="23.1066" result="effect1_foregroundBlur"/>
</filter>
<linearGradient id="paint0_linear" x1="-2.04234e-10" y1="580.817" x2="1058.7" y2="580.817" gradientUnits="userSpaceOnUse">
<stop stop-color="#B7C2D0"/>
<stop offset="0.0295345" stop-color="#CAD4DB"/>
<stop offset="0.0625" stop-color="#BECCDE"/>
<stop offset="0.133609" stop-color="#B7C2D0" stop-opacity="0.7"/>
<stop offset="0.865967" stop-color="#B7C2D0" stop-opacity="0.7"/>
<stop offset="0.941937" stop-color="#BECCDE"/>
<stop offset="0.971275" stop-color="#CAD4DB"/>
<stop offset="0.996436" stop-color="#B7C2D0"/>
</linearGradient>
<linearGradient id="paint1_linear" x1="529.352" y1="583.968" x2="529.352" y2="596.571" gradientUnits="userSpaceOnUse">
<stop stop-color="#D1DBE9"/>
<stop offset="1" stop-color="#AAB5C6"/>
</linearGradient>
<linearGradient id="paint2_linear" x1="467.095" y1="581.492" x2="595.471" y2="581.492" gradientUnits="userSpaceOnUse">
<stop stop-color="#CFD9E7"/>
<stop offset="0.317518" stop-color="#CFD9E7" stop-opacity="0"/>
<stop offset="0.660584" stop-color="#CFD9E7" stop-opacity="0"/>
<stop offset="1" stop-color="#CFD9E7"/>
</linearGradient>
</defs>
</svg>
