<svg width="150" height="150" viewBox="0 0 150 150" fill="none" xmlns="http://www.w3.org/2000/svg">
<path d="M134.062 87.106L132.925 100.472C132.587 104.483 131.426 108.382 129.515 111.925C129.382 112.173 129.183 112.381 128.941 112.525C128.699 112.67 128.422 112.746 128.14 112.747C127.883 112.747 127.629 112.683 127.403 112.559C127.04 112.361 126.77 112.027 126.653 111.63C126.536 111.234 126.581 110.807 126.778 110.443C128.486 107.276 129.524 103.791 129.828 100.206L130.965 86.8403C131.009 86.4311 131.209 86.0545 131.523 85.789C131.838 85.5236 132.242 85.3897 132.653 85.4153C133.063 85.4542 133.442 85.6537 133.706 85.9704C133.97 86.287 134.098 86.6952 134.062 87.106ZM24.5311 35.056C24.3612 34.9405 24.1703 34.8597 23.9692 34.818C23.768 34.7764 23.5607 34.7749 23.359 34.8135C23.1573 34.8521 22.9651 34.9301 22.7936 35.043C22.622 35.1559 22.4744 35.3016 22.3592 35.4716C19.5332 39.6522 17.8208 44.4849 17.3842 49.5122L15.8905 67.0841C15.8729 67.2887 15.8958 67.4947 15.9579 67.6905C16.0201 67.8862 16.1202 68.0678 16.2525 68.2248C16.3849 68.3818 16.5469 68.5112 16.7292 68.6056C16.9116 68.6999 17.1108 68.7574 17.3155 68.7747H17.4498C17.8425 68.7761 18.2212 68.6296 18.5108 68.3644C18.8003 68.0992 18.9794 67.7347 19.0123 67.3435L20.5092 49.7716C20.8989 45.2769 22.4295 40.9561 24.9561 37.2185C25.1854 36.875 25.2694 36.4547 25.1898 36.0495C25.1101 35.6443 24.8733 35.2871 24.5311 35.056ZM127.062 58.8341L123.594 99.6872C123.151 104.75 120.831 109.465 117.09 112.905C113.349 116.345 108.457 118.263 103.375 118.281C102.79 118.281 102.206 118.25 101.625 118.187L41.7811 113.093C39.1231 112.872 36.535 112.128 34.1646 110.905C31.7943 109.682 29.6884 108.004 27.9672 105.967C26.2461 103.929 24.9435 101.572 24.134 99.031C23.3246 96.4896 23.0241 93.8136 23.2498 91.156L26.7186 50.3122C27.1796 44.9461 29.7528 39.9828 33.8725 36.5136C37.9922 33.0444 43.3211 31.3533 48.6873 31.8122L108.531 36.906C111.189 37.1277 113.777 37.8712 116.148 39.0941C118.518 40.317 120.624 41.9951 122.345 44.0327C124.066 46.0702 125.369 48.427 126.178 50.9684C126.988 53.5098 127.288 56.1858 127.062 58.8435V58.8341ZM91.6248 76.3966C91.6439 76.118 91.5907 75.8393 91.4702 75.5874C91.3497 75.3355 91.1662 75.1191 90.9373 74.9591L65.3436 58.0841C65.1167 57.9368 64.856 57.8501 64.5861 57.8322C64.3163 57.8142 64.0463 57.8657 63.802 57.9816C63.5576 58.0975 63.347 58.274 63.1902 58.4944C63.0334 58.7147 62.9356 58.9715 62.9061 59.2403L60.4373 88.4278C60.4068 88.6967 60.4487 88.9688 60.5585 89.216C60.6684 89.4632 60.8423 89.6766 61.0623 89.8341C61.3393 90.0203 61.6661 90.1184 61.9998 90.1153C62.2145 90.1163 62.4271 90.0737 62.6248 89.9903L90.6873 77.6778C90.9438 77.5675 91.1661 77.3905 91.3309 77.1652C91.4958 76.9398 91.5973 76.6744 91.6248 76.3966ZM132.944 77.431C132.635 77.4481 132.339 77.5563 132.092 77.7419C131.845 77.9275 131.658 78.1822 131.556 78.4738C131.454 78.7653 131.44 79.0806 131.517 79.3799C131.594 79.6791 131.758 79.9488 131.988 80.155C132.218 80.3611 132.504 80.4944 132.81 80.5379C133.116 80.5815 133.428 80.5334 133.706 80.3997C133.985 80.2661 134.218 80.0528 134.375 79.7869C134.532 79.521 134.607 79.2145 134.59 78.906C134.579 78.7009 134.528 78.5001 134.439 78.315C134.35 78.1299 134.226 77.9641 134.073 77.8271C133.92 77.6901 133.741 77.5847 133.548 77.5167C133.354 77.4487 133.149 77.4196 132.944 77.431ZM16.8748 73.5216C16.567 73.5405 16.2716 73.6501 16.026 73.8366C15.7803 74.0231 15.5953 74.2781 15.4944 74.5695C15.3934 74.8609 15.3809 75.1757 15.4584 75.4742C15.536 75.7727 15.7002 76.0415 15.9303 76.2469C16.1604 76.4523 16.4462 76.5849 16.7515 76.6282C17.0569 76.6715 17.3682 76.6234 17.6463 76.49C17.9244 76.3567 18.1568 76.144 18.3143 75.8788C18.4717 75.6136 18.5472 75.3077 18.5311 74.9997C18.5203 74.7936 18.4688 74.5916 18.3796 74.4055C18.2903 74.2194 18.1651 74.0528 18.0111 73.9154C17.8571 73.7779 17.6774 73.6724 17.4824 73.6048C17.2873 73.5372 17.0808 73.5089 16.8748 73.5216Z" fill="white"/>
</svg>
